32bitALU/32bitALU.sim/sim_1/behav/xsim/simulate.log
Time resolution is 1 ps
Time	ALU_OP	A			B			RESULT			ZERO
0	0000	ffffffff	0f0f0f0f	xxxxxxxx	x
0	0000	ffffffff	0f0f0f0f	0f0f0f0f	0
10000	0001	00000000	12345678	0f0f0f0f	0
10000	0001	00000000	12345678	12345678	0
20000	0010	0000000a	0000000f	12345678	0
20000	0010	0000000a	0000000f	00000019	0
30000	0110	00000014	00000005	00000019	0
30000	0110	00000014	00000005	0000000f	0
40000	1100	ffff0000	00ff00ff	0000000f	0
40000	1100	ffff0000	00ff00ff	ff0000ff	0
50000	1111	00000005	00000005	ff0000ff	0
50000	1111	00000005	00000005	00000000	1
$finish called at time : 60 ns : File "D:/verilog_11/32bitALU/32bitALU.srcs/sim_1/new/32bit_alu_tb.v" Line 65
